4.062620143639424780e-02 9.523542600737520958e-02 5.082837406536436231e-02
1.283846996967302478e-01 7.402191106723347847e-02 7.540255325916592199e-02
2.391095740070444675e-01 1.545962822678061399e-01 5.842108842914404965e-02
3.920473789977946960e-02 8.648686760831968134e-02 4.265205859225351670e-02
5.328061583544985158e-02 9.243589760845155601e-02 8.039068657069035895e-02
